{
  "type": "minecraft:crafting_shaped",
  "key": {
    "A": {"item": "bbxmod:one_bobux_note"}
  },
  "pattern": [
    "AAA",
    "AAA",
    "AAA"
  ],
  "result": {
    "item": "bbxmod:one_bobux_bunch",
    "count": 1
  }
}
