{
  "parent": "block/cube",
  "textures": {
    "particle": "bbxmod:block/one_bobux_block",
    "all": "bbxmod:block/one_bobux_block"
  },
  "elements": [
    {
      "from": [0, 0, 0],
      "to": [16, 16, 16],
      "faces": {
        "up":    {"uv": [    0,0,  5.34, 8], "texture": "#all", "cullface": "up"},
        "down":  {"uv": [    0,8,  5.34,16], "texture": "#all", "cullface": "down"},
        "east":  {"uv": [ 5.35,0, 10.66, 8], "texture": "#all", "cullface": "east"},
        "west":  {"uv": [ 5.35,8, 10.66,16], "texture": "#all", "cullface": "west"},
        "north": {"uv": [10.67,0,    16, 8], "texture": "#all", "cullface": "north"},
        "south": {"uv": [10.67,8,    16,16], "texture": "#all", "cullface": "south"}
      }
    }
  ]
}